<?xml version="1.0" encoding="UTF-8"?>
<svg width="1440px" height="1033px" viewBox="0 0 1440 1033" version="1.1" xmlns="http://www.w3.org/2000/svg" xmlns:xlink="http://www.w3.org/1999/xlink">
    <!-- Generator: Sketch 52.3 (67297) - http://www.bohemiancoding.com/sketch -->
    <title>Footer</title>
    <desc>Created with Sketch.</desc>
    <defs>
        <linearGradient x1="98.3980991%" y1="1.13792668%" x2="2.10728642%" y2="98.3821128%" id="linearGradient-1">
            <stop stop-color="#43A5ED" offset="0%"></stop>
            <stop stop-color="#1ED292" offset="100%"></stop>
        </linearGradient>
        <circle id="path-2" cx="50.5" cy="279.5" r="10.5"></circle>
        <filter x="-169.0%" y="-154.8%" width="533.3%" height="533.3%" filterUnits="objectBoundingBox" id="filter-3">
            <feOffset dx="10" dy="13" in="SourceAlpha" result="shadowOffsetOuter1"></feOffset>
            <feGaussianBlur stdDeviation="13" in="shadowOffsetOuter1" result="shadowBlurOuter1"></feGaussianBlur>
            <feColorMatrix values="0 0 0 0 0.354178072   0 0 0 0 0.426787578   0 0 0 0 0.530984269  0 0 0 0.237318841 0" type="matrix" in="shadowBlurOuter1"></feColorMatrix>
        </filter>
        <linearGradient x1="1.63059968%" y1="1.61461342%" x2="98.8747858%" y2="97.9054261%" id="linearGradient-4">
            <stop stop-color="#45F5A0" offset="0%"></stop>
            <stop stop-color="#1DB57B" offset="100%"></stop>
        </linearGradient>
        <circle id="path-5" cx="1065.5" cy="181.5" r="12.5"></circle>
        <filter x="-142.0%" y="-130.0%" width="464.0%" height="464.0%" filterUnits="objectBoundingBox" id="filter-6">
            <feOffset dx="10" dy="13" in="SourceAlpha" result="shadowOffsetOuter1"></feOffset>
            <feGaussianBlur stdDeviation="13" in="shadowOffsetOuter1" result="shadowBlurOuter1"></feGaussianBlur>
            <feColorMatrix values="0 0 0 0 0.354178072   0 0 0 0 0.426787578   0 0 0 0 0.530984269  0 0 0 0.237318841 0" type="matrix" in="shadowBlurOuter1"></feColorMatrix>
        </filter>
        <linearGradient x1="1.63059968%" y1="1.61461342%" x2="98.8747858%" y2="97.9054261%" id="linearGradient-7">
            <stop stop-color="#43A5ED" offset="0%"></stop>
            <stop stop-color="#083C9A" offset="100%"></stop>
        </linearGradient>
        <circle id="path-8" cx="1253" cy="528" r="19"></circle>
        <filter x="-93.4%" y="-85.5%" width="339.5%" height="339.5%" filterUnits="objectBoundingBox" id="filter-9">
            <feOffset dx="10" dy="13" in="SourceAlpha" result="shadowOffsetOuter1"></feOffset>
            <feGaussianBlur stdDeviation="13" in="shadowOffsetOuter1" result="shadowBlurOuter1"></feGaussianBlur>
            <feColorMatrix values="0 0 0 0 0.354178072   0 0 0 0 0.426787578   0 0 0 0 0.530984269  0 0 0 0.237318841 0" type="matrix" in="shadowBlurOuter1"></feColorMatrix>
        </filter>
        <radialGradient cx="15.0916391%" cy="12.9871348%" fx="15.0916391%" fy="12.9871348%" r="104.056418%" id="radialGradient-10">
            <stop stop-color="#FCB006" offset="0%"></stop>
            <stop stop-color="#F76B1C" offset="100%"></stop>
        </radialGradient>
        <circle id="path-11" cx="14.5" cy="513.5" r="14.5"></circle>
        <filter x="-117.2%" y="-141.4%" width="403.4%" height="403.4%" filterUnits="objectBoundingBox" id="filter-12">
            <feOffset dx="10" dy="3" in="SourceAlpha" result="shadowOffsetOuter1"></feOffset>
            <feGaussianBlur stdDeviation="13" in="shadowOffsetOuter1" result="shadowBlurOuter1"></feGaussianBlur>
            <feColorMatrix values="0 0 0 0 0.354178072   0 0 0 0 0.426787578   0 0 0 0 0.530984269  0 0 0 0.237318841 0" type="matrix" in="shadowBlurOuter1"></feColorMatrix>
        </filter>
        <circle id="path-13" cx="1257.5" cy="14.5" r="14.5"></circle>
        <filter x="-117.2%" y="-141.4%" width="403.4%" height="403.4%" filterUnits="objectBoundingBox" id="filter-14">
            <feOffset dx="10" dy="3" in="SourceAlpha" result="shadowOffsetOuter1"></feOffset>
            <feGaussianBlur stdDeviation="13" in="shadowOffsetOuter1" result="shadowBlurOuter1"></feGaussianBlur>
            <feColorMatrix values="0 0 0 0 0.354178072   0 0 0 0 0.426787578   0 0 0 0 0.530984269  0 0 0 0.237318841 0" type="matrix" in="shadowBlurOuter1"></feColorMatrix>
        </filter>
    </defs>
    <g id="Page-1" stroke="none" stroke-width="1" fill="none" fill-rule="evenodd">
        <g id="Better_Home" transform="translate(0.000000, -6811.000000)">
            <g id="Footer" transform="translate(-3.000000, 6833.000000)">
                <path d="M0,88 C142.200266,165.965846 382.366933,204.948769 720.5,204.948769 C1058.63307,204.948769 1299.79973,165.965846 1444,88 L1444,1011 L0,1011" id="Path-3-Copy-2" fill="#0A2D56"></path>
                <g id="Group-40" transform="translate(80.000000, 0.000000)">
                    <g id="Group-32">
                        <g id="Group-31">
                            <g id="Oval-3-Copy-19">
                                <use fill="black" fill-opacity="1" filter="url(#filter-3)" xlink:href="#path-2"></use>
                                <use fill="url(#linearGradient-1)" fill-rule="evenodd" xlink:href="#path-2"></use>
                            </g>
                            <g id="Oval-3-Copy-18">
                                <use fill="black" fill-opacity="1" filter="url(#filter-6)" xlink:href="#path-5"></use>
                                <use fill="url(#linearGradient-4)" fill-rule="evenodd" xlink:href="#path-5"></use>
                            </g>
                            <g id="Oval-3-Copy-21">
                                <use fill="black" fill-opacity="1" filter="url(#filter-9)" xlink:href="#path-8"></use>
                                <use fill="url(#linearGradient-7)" fill-rule="evenodd" xlink:href="#path-8"></use>
                            </g>
                            <g id="Oval-3-Copy-20">
                                <use fill="black" fill-opacity="1" filter="url(#filter-12)" xlink:href="#path-11"></use>
                                <use fill="url(#radialGradient-10)" fill-rule="evenodd" xlink:href="#path-11"></use>
                            </g>
                            <g id="Oval-3-Copy-22">
                                <use fill="black" fill-opacity="1" filter="url(#filter-14)" xlink:href="#path-13"></use>
                                <use fill="url(#radialGradient-10)" fill-rule="evenodd" xlink:href="#path-13"></use>
                            </g>
                        </g>
                    </g>
                </g>
            </g>
        </g>
    </g>
</svg>